…
``` r
library(nycflights13)
library(tidyverse)
library(readxl)
library(stringr)
library(lubridate)

flights %>% filter(month == 12, origin == "JFK") %>% group_by(dest) %>% count(sort = TRUE)
```

    ## # A tibble: 64 × 2
    ## # Groups:   dest [64]
    ##    dest      n
    ##    <chr> <int>
    ##  1 LAX     947
    ##  2 SFO     698
    ##  3 BOS     495
    ##  4 MCO     451
    ##  5 SJU     450
    ##  6 FLL     385
    ##  7 LAS     309
    ##  8 MIA     289
    ##  9 BUF     286
    ## 10 TPA     282
    ## # ℹ 54 more rows
…
``` r
flights %>% filter(arr_delay > 0, !is.na(arr_delay)) %>%
  group_by(month, day) %>%
  summarize(avg_delay = sum(arr_delay) / n()) %>%
  arrange(desc(avg_delay))
```

    ## `summarise()` has grouped output by 'month'. You can override using the
    ## `.groups` argument.

    ## # A tibble: 365 × 3
    ## # Groups:   month [12]
    ##    month   day avg_delay
    ##    <int> <int>     <dbl>
    ##  1     7    10     110. 
    ##  2     9     2     103. 
    ##  3     7    22     102. 
    ##  4     9    12     100. 
    ##  5     3     8      97.5
    ##  6     4    10      94.1
    ##  7     6    24      92.1
    ##  8     5    23      88.5
    ##  9     6    27      88.4
    ## 10     7    28      86.6
    ## # ℹ 355 more rows
…
``` r
gapminder %>% filter(!is.na(gdp)) %>%
  group_by(year) %>%
  count()
```

    ## # A tibble: 52 × 2
    ## # Groups:   year [52]
    ##     year     n
    ##    <int> <int>
    ##  1  1960    95
    ##  2  1961    96
    ##  3  1962    96
    ##  4  1963    96
    ##  5  1964    96
    ##  6  1965   102
    ##  7  1966   104
    ##  8  1967   105
    ##  9  1968   106
    ## 10  1969   106
    ## # ℹ 42 more rows
…
